﻿p_zendar|젠다 도시
p_town_1|사라고스 도시
p_town_2|티르 도시
p_town_3|벨루카 도시
p_town_4|수노 도시
p_town_5|젤카라 도시
p_town_6|프라벤 도시
p_town_7|옥스칼 도시
p_town_8|레이바딘 도시
p_town_9|쿠단 도시
p_town_10|툴가 도시
p_town_11|쿠로우 도시
p_town_12|웨르체그 도시
p_town_13|리바체그 도시
p_town_14|할마 도시
p_town_15|얄렌 도시
p_town_16|디림 도시
p_town_17|이카무르 도시
p_town_18|나라 도시
p_town_19|샤리즈 도시
p_town_20|두르쿠바 도시
p_town_21|아메라드 도시
p_town_22|바리예 도시
p_castle_1|쿠마 성
p_castle_2|말라유르그 성
p_castle_3|불루가 성
p_castle_4|라도기어 성
p_castle_5|텔로그 성
p_castle_6|틸벗 성
p_castle_7|선겟치 성
p_castle_8|제어비 성
p_castle_9|제이미치 성
p_castle_10|알버크 성
p_castle_11|쿠린 성
p_castle_12|칼벡 성
p_castle_13|케를라단 성
p_castle_14|마라스 성
p_castle_15|에르겔론 성
p_castle_16|알메라 성
p_castle_17|디스타 성
p_castle_18|이스미랄라 성
p_castle_19|루마 성
p_castle_20|데키오스 성
p_castle_21|입델레스 성
p_castle_22|언우즈벡 성
p_castle_23|테바린 성
p_castle_24|레인디 성
p_castle_25|라이벨렛 성
p_castle_26|세누즈그다 성
p_castle_27|린다이어 성
p_castle_28|그룬월더 성
p_castle_29|넬렉 성
p_castle_30|아수간 성
p_castle_31|바인쿠르드 성
p_castle_32|넌다르 성
p_castle_33|에트로스크 성
p_castle_34|흐루스 성
p_castle_35|헤링고스 성
p_castle_36|젤베기 성
p_castle_37|드라무그 성
p_castle_38|툴북 성
p_castle_39|슬레즈크 성
p_castle_40|우훈 성
p_castle_41|자메이드 성
p_castle_42|테레마 성
p_castle_43|샬와 성
p_castle_44|두린 성
p_castle_45|카라프 성
p_castle_46|웨햐 성
p_castle_47|사마라 성
p_castle_48|발다크 성
p_village_1|야라가 마을
p_village_2|버글렌 마을
p_village_1|야라가 마을
p_village_2|버글렌 마을
p_village_3|아즈게드 마을
p_village_4|노마 마을
p_village_5|쿨룸 마을
p_village_6|에미린 마을
p_village_7|아메르 마을
p_village_8|하엔 마을
p_village_9|버브란 마을
p_village_10|메킨 마을
p_village_11|더스투릴 마을
p_village_12|에머 마을
p_village_13|네메자 마을
p_village_14|숨부자 마을
p_village_15|라이벨렛 마을
p_village_16|셰이프쉬트 마을
p_village_17|마젠 마을
p_village_18|울버반 마을
p_village_19|하넌 마을
p_village_20|우슬룸 마을
p_village_21|바젝 마을
p_village_22|술루스 마을
p_village_23|일비아 마을
p_village_24|룰디 마을
p_village_25|대쉬비거 마을
p_village_26|패건둘 마을
p_village_27|글룬말 마을
p_village_28|태쉬쿨런 마을
p_village_29|블러인 마을
p_village_30|루발 마을
p_village_31|엠비안 마을
p_village_32|토드하 마을
p_village_33|률랜 마을
p_village_34|히어르대 마을
p_village_35|페아리션 마을
p_village_36|제이예크 마을
p_village_37|에이다 쿨런 마을
p_village_38|이바이런 마을
p_village_39|레블런 마을
p_village_39|레블런 마을
p_village_40|사렌 마을
p_village_41|데건 마을
p_village_42|드랄라이 아밴 마을
p_village_43|지구쉬 마을
p_village_44|페쉬마이 마을
p_village_45|블루굴 마을
p_village_46|페드너 마을
p_village_47|이페쉬 마을
p_village_48|베이더 마을
p_village_49|티스미르 마을
p_village_50|클래인디 마을
p_village_51|젤베기 마을
p_village_52|아매쉬크 마을
p_village_53|발라닐 마을
p_village_54|차이드 마을
p_village_55|타드사메쉬 마을
p_village_56|페나다 마을
p_village_57|우쉬쿠루 마을
p_village_58|베진 마을
p_village_59|듀마르 마을
p_village_60|탈베르 마을
p_village_61|알데런 마을
p_village_62|레바체 마을
p_village_63|르두나 마을
p_village_64|세린디아 마을
p_village_65|린다 마을
p_village_66|피스드나 마을
p_village_67|테반드라 마을
p_village_68|입델레스 마을
p_village_69|크윈 마을
p_village_70|디리그세네 마을
p_village_71|트쉽틴 마을
p_village_72|엘베르 마을
p_village_73|차에자 마을
p_village_74|아이케 마을
p_village_75|불라반 마을
p_village_76|케델케 마을
p_village_77|리지 마을
p_village_78|사리미쉬 마을
p_village_79|이스티니아 마을
p_village_80|바예젝 마을
p_village_81|오다산 마을
p_village_82|야리베 마을
p_village_83|기심 마을
p_village_84|체레즈 마을
p_village_85|이스미랄라 마을
p_village_86|슬레즈크 마을
p_village_87|우디니아드 마을
p_village_88|툴북 마을
p_village_89|우훈 마을
p_village_90|제이미치 마을
p_village_91|에인 아수아디 마을
p_village_92|드베인 마을
p_village_93|콸유트 마을
p_village_94|마지그 마을
p_village_95|탐뉴 마을
p_village_96|하바  마을
p_village_97|섹템 마을
p_village_98|마위티 마을
p_village_99|피샤라 마을
p_village_100|르크바일 마을
p_village_101|욱스카 마을
p_village_102|즈발 줌르 마을
p_village_103|미자옛 마을
p_village_104|타주낫 마을
p_village_105|아압 마을
p_village_106|하와하 마을
p_village_107|운리야 마을
p_village_108|미드 눈 마을
p_village_109|틸림살 마을
p_village_110|러스 디그 마을
p_salt_mine|소금 광산
p_four_ways_inn|네거리 여관
p_test_scene|시험용 맵
p_battlefields|전장
p_dhorak_keep|도락 성
p_training_ground|훈련소
p_training_ground_1|훈련장
p_training_ground_2|훈련장
p_training_ground_3|훈련장
p_training_ground_4|훈련장
p_training_ground_5|훈련장
p_steppe_bandit_spawn_point|약탈자 생성 지점
p_taiga_bandit_spawn_point|설원 도적 생성 지점
p_forest_bandit_spawn_point|숲 도적 생성 지점
p_mountain_bandit_spawn_point|산적 생성 지점
p_sea_raider_spawn_point_1|해적 생성 지점1
p_sea_raider_spawn_point_2|해적 생성 지점2
p_desert_bandit_spawn_point|사막 도적 생성 지점
